<?xml version="1.0" standalone="no"?>
<!DOCTYPE svg PUBLIC "-//W3C//DTD SVG 1.1//EN" "http://www.w3.org/Graphics/SVG/1.1/DTD/svg11.dtd" >
<svg xmlns="http://www.w3.org/2000/svg">
<metadata>Generated by IcoMoon</metadata>
<defs>
<font id="icomoon" horiz-adv-x="1024">
<font-face units-per-em="1024" ascent="960" descent="-64" />
<missing-glyph horiz-adv-x="1024" />
<glyph unicode="&#x20;" horiz-adv-x="512" d="" />
<glyph unicode="&#xe600;" glyph-name="news" horiz-adv-x="1269" d="M362.217-48v0c-82.251 0-148.932 66.681-148.932 148.932v241.464h-83.696c-60.376 0-109.761 49.371-109.761 109.734v131.703c0 60.363 49.385 109.748 109.748 109.748h329.257c240.42 0 444.266 128.021 578.15 233.806 46.668 36.881 118.436 8.943 123.885-50.282 0.255-2.611 0.361-5.248 0.361-7.912v-263.405c48.702 0 87.807-39.104 87.807-87.807s-39.104-87.793-87.807-87.793v-263.405c0-2.758-0.12-5.475-0.388-8.179-5.662-59.627-77.712-86.227-124.862-49.291-123.71 96.963-435.644 212.347-650.695 230.326v-364.558c0-12.731-10.335-23.079-23.066-23.079z" />
<glyph unicode="&#xe601;" glyph-name="quotes" horiz-adv-x="1210" d="M560.026 312.746c0-198.673-161.968-360.746-360.746-360.746h-45.014c-24.716 0-45.12 20.404-45.12 45.12v90.134c0 24.611 20.404 45.12 45.12 45.12h45.014c99.389 0 180.374 81.089 180.374 180.373v22.507c0 37.337-30.29 67.627-67.627 67.627h-157.761c-74.673 0-135.359 60.685-135.359 135.359v270.507c0 74.673 60.685 135.254 135.359 135.254h270.507c74.673 0 135.254-60.58 135.254-135.254v-496zM1191.174 312.746c0-198.673-162.073-360.746-360.746-360.746h-45.014c-24.611 0-45.12 20.404-45.12 45.12v90.134c0 24.611 20.404 45.12 45.12 45.12h45.12c99.284 0 180.374 81.089 180.374 180.373v22.507c0 37.337-30.29 67.627-67.732 67.627h-157.761c-74.673 0-135.254 60.685-135.254 135.359v270.507c0 74.673 60.58 135.254 135.254 135.254h270.507c74.673 0 135.254-60.58 135.254-135.254v-496z" />
<glyph unicode="&#xf005;" glyph-name="star" horiz-adv-x="951" d="M916.903 570.98q0-11.673-13.796-25.47l-192.613-187.837 45.633-265.306q0.53-3.714 0.53-10.613 0-11.143-5.571-18.837t-16.184-7.694q-10.081 0-21.224 6.367l-238.244 125.224-238.245-125.224q-11.673-6.367-21.224-6.367-11.143 0-16.714 7.694t-5.571 18.837q0 3.184 1.061 10.613l45.633 265.306-193.143 187.837q-13.266 14.327-13.266 25.47 0 19.633 29.714 24.408l266.367 38.734 119.387 241.429q10.081 21.755 26 21.755t26-21.755l119.387-241.429 266.367-38.734q29.714-4.776 29.714-24.408z" />
<glyph unicode="&#xf00c;" glyph-name="check" d="M954.857 627.428q0-22.857-16-38.857l-491.429-491.429q-16-16-38.857-16t-38.857 16l-284.571 284.571q-16 16-16 38.857t16 38.857l77.714 77.714q16 16 38.857 16t38.857-16l168-168.571 374.857 375.429q16 16 38.857 16t38.857-16l77.714-77.714q16-16 16-38.857z" />
<glyph unicode="&#xf045;" glyph-name="share-square-o" horiz-adv-x="951" d="M781.066 389.51v-137.429q0-63.143-44.837-107.98t-107.98-44.837h-441.47q-63.143 0-107.98 44.837t-44.837 107.98v441.47q0 63.143 44.837 107.98t107.98 44.837h135.306q6.898 0 11.939-5.041t5.041-11.939q0-14.327-13.796-16.98-40.857-13.796-70.571-31.837-5.306-2.123-8.49-2.123h-59.429q-35.020 0-59.959-24.939t-24.939-59.959v-441.47q0-35.020 24.939-59.959t59.959-24.939h441.47q35.020 0 59.959 24.939t24.939 59.959v113.551q0 10.082 9.551 15.387 14.857 6.898 28.653 19.633 8.49 8.49 18.571 4.245 11.143-4.776 11.143-15.387zM906.821 652.694l-203.756-203.756q-9.551-10.081-23.877-10.081-6.367 0-13.266 2.653-20.694 9.020-20.694 31.306v101.877h-84.898q-171.387 0-232.408-69.51-63.143-72.694-39.266-250.98 1.592-12.204-10.613-18.041-4.245-1.061-6.367-1.061-8.49 0-13.796 6.898-5.306 7.429-11.143 16.449t-20.959 36.347-26.266 52.796-20.429 60.49-9.286 64.734q0 26 1.857 48.286t7.429 47.756 14.857 46.694 24.939 43.244 36.347 39.266 50.143 32.633 66.061 25.734 84.633 16.184 104.266 5.837h84.898v101.877q0 22.286 20.694 31.306 6.898 2.653 13.266 2.653 13.796 0 23.877-10.082l203.755-203.756q10.082-10.082 10.082-23.877t-10.082-23.877z" />
<glyph unicode="&#xf079;" glyph-name="retweet" horiz-adv-x="1097" d="M718.363 116.244q0-6.898-5.041-11.939t-11.939-5.041h-509.387q-4.245 0-7.163 1.061t-4.776 3.714-2.919 4.245-1.592 6.102-0.53 6.102v318.367h-101.877q-13.796 0-23.877 10.082t-10.082 23.877q0 12.734 7.959 21.755l169.796 203.756q10.082 11.673 26 11.673t26-11.673l169.796-203.756q7.959-9.020 7.959-21.755 0-13.796-10.081-23.877t-23.877-10.082h-101.877v-203.755h305.633q8.49 0 13.266-5.837l84.898-101.877q3.714-5.837 3.714-11.143zM1057.954 336.98q0-12.734-7.959-21.755l-169.796-203.755q-10.613-12.204-26-12.204t-26 12.204l-169.796 203.755q-7.959 9.020-7.959 21.755 0 13.796 10.082 23.877t23.877 10.082h101.877v203.755h-305.633q-8.49 0-13.266 6.367l-84.898 101.877q-3.714 4.776-3.714 10.613 0 6.898 5.041 11.939t11.939 5.041h509.387q4.245 0 7.163-1.061t4.776-3.714 2.918-4.245 1.592-6.102 0.53-6.102v-318.367h101.877q13.796 0 23.877-10.082t10.082-23.877z" />
<glyph unicode="&#xf099;" glyph-name="twitter" horiz-adv-x="951" d="M925.714 717.714q-38.286-56-92.571-95.429 0.571-8 0.571-24 0-74.286-21.714-148.286t-66-142-105.429-120.286-147.429-83.429-184.571-31.143q-154.857 0-283.429 82.857 20-2.286 44.571-2.286 128.571 0 229.143 78.857-60 1.143-107.429 36.857t-65.143 91.143q18.857-2.857 34.857-2.857 24.571 0 48.571 6.286-64 13.143-106 63.714t-42 117.429v2.286q38.857-21.714 83.429-23.429-37.714 25.143-60 65.714t-22.286 88q0 50.286 25.143 93.143 69.143-85.143 168.286-136.286t212.286-56.857q-4.571 21.714-4.571 42.286 0 76.571 54 130.571t130.571 54q80 0 134.857-58.286 62.286 12 117.143 44.571-21.143-65.714-81.143-101.714 53.143 5.714 106.286 28.571z" />
<glyph unicode="&#xf104;" glyph-name="angle-left" horiz-adv-x="366" d="M358.286 640q0-7.429-5.714-13.143l-224.571-224.571 224.571-224.571q5.714-5.714 5.714-13.143t-5.714-13.143l-28.571-28.571q-5.714-5.714-13.143-5.714t-13.143 5.714l-266.286 266.286q-5.714 5.714-5.714 13.143t5.714 13.143l266.286 266.286q5.714 5.714 13.143 5.714t13.143-5.714l28.571-28.571q5.714-5.714 5.714-13.143z" />
<glyph unicode="&#xf105;" glyph-name="angle-right" horiz-adv-x="366" d="M340 402.286q0-7.429-5.714-13.143l-266.286-266.286q-5.714-5.714-13.143-5.714t-13.143 5.714l-28.571 28.571q-5.714 5.714-5.714 13.143t5.714 13.143l224.571 224.571-224.571 224.571q-5.714 5.714-5.714 13.143t5.714 13.143l28.571 28.571q5.714 5.714 13.143 5.714t13.143-5.714l266.286-266.286q5.714-5.714 5.714-13.143z" />
<glyph unicode="&#xf107;" glyph-name="angle-down" horiz-adv-x="658" d="M614.286 530.286q0-7.429-5.714-13.143l-266.286-266.286q-5.714-5.714-13.143-5.714t-13.143 5.714l-266.286 266.286q-5.714 5.714-5.714 13.143t5.714 13.143l28.571 28.571q5.714 5.714 13.143 5.714t13.143-5.714l224.571-224.571 224.571 224.571q5.714 5.714 13.143 5.714t13.143-5.714l28.571-28.571q5.714-5.714 5.714-13.143z" />
</font></defs></svg>